{
    "dnn": [
        {
            "type": "conv",
            "value": {
                "filters": 32, 
                "kernel_size": {
                        "width": 7,
                        "height": 7
                    }, 
                "strides": {
                        "x": 1,
                        "y": 1
                    }, 
                "padding": "valid",
                "data_format": null,
                "dilation_rate": { 
                        "x": 1,
                        "y": 1
                    },
                "activation": "relu", 
                "use_bias": true, 
                "kernel_initializer":"glorot_uniform",
                "bias_initializer":"zeros",
                "kernel_regularizer": null,
                "bias_regularizer": null,
                "activity_regularizer": null,
                "kernel_constraint": null,
                "bias_constraint": null
            }
        },
        {
            "type": "bn",
            "value":{
                "axis":3, 
                "momentum":0.99, 
                "epsilon":0.001, 
                "center":true, 
                "scale":true, 
                "beta_initializer":"zeros", 
                "gamma_initializer":"ones", 
                "moving_mean_initializer":"zeros", 
                "moving_variance_initializer":"ones", 
                "beta_regularizer":null, 
                "gamma_regularizer":null, 
                "beta_constraint":null, 
                "gamma_constraint":null
            }
        },
        {
            "type":"act",
            "value":{
                "function":"relu"
            }
        },
        {
            "type":"max_pool",
            "value":{
                "pool_size":{
                    "vertical":2, 
                    "horizontal":2
                },
                "strides":null,
                "padding":"valid", 
                "data_format":null
            }
        },
        {
            "type":"flat",
            "value":{
                "data_format":null
            }
        },
        {
            "type":"fc",
            "value":{
                "units":1, 
                "input_shape": null,
                "activation":"sigmoid", 
                "use_bias":true,
                "kernel_initializer":"glorot_uniform", 
                "bias_initializer":"zeros", 
                "kernel_regularizer":null, 
                "bias_regularizer":null, 
                "activity_regularizer":null, 
                "kernel_constraint":null, 
                "bias_constraint":null
            }
        }
    ],
    "execution":{
        "batch_size": 100,
        "epochs": 10,
        "interval": 2,
        "amount": 1,
        "method": "parallel",
        "catch_type": "layerings"
    },
    "optimizer":{
        "optimizer": "adam",
        "loss": "binary_crossentropy"
    },
    "archives":{
        "type":"h5",
        "mode": "train-test",
        "dataset": "datasets/train_happy.h5",
        "dataset_train": "datasets/train_happy.h5",
        "dataset_test": "datasets/test_happy.h5",
        "attributes":{
            "train_set_x": "train_set_x",
            "train_set_y": "train_set_y",
            "test_set_x": "test_set_x",
            "test_set_y": "test_set_y",
            "list_classes": "list_classes",
            "cant_input": 60
        }
    },
    "metric":[{
        "lot": 2,
        "quantity":500,
        "module":"tensor_perceptron",
        "epoch_measure": "last" ,
        "lot_measure": "average",
        "parameters":{
            "epochs": 100,
            "bias": -1,
            "eta": 0.1,
            "C":0.0001,
            "batch":150
        }
    }]
}